<?xml version="1.0" encoding="UTF-8" standalone="no"?>
<svg
   inkscape:version="1.1.2 (0a00cf5339, 2022-02-04)"
   id="svg8"
   version="1.1"
   viewBox="0 0 600 180"
   height="180"
   width="600"
   sodipodi:docname="title.svg"
   xmlns:inkscape="http://www.inkscape.org/namespaces/inkscape"
   xmlns:sodipodi="http://sodipodi.sourceforge.net/DTD/sodipodi-0.dtd"
   xmlns="http://www.w3.org/2000/svg"
   xmlns:svg="http://www.w3.org/2000/svg"
   xmlns:rdf="http://www.w3.org/1999/02/22-rdf-syntax-ns#"
   xmlns:cc="http://creativecommons.org/ns#"
   xmlns:dc="http://purl.org/dc/elements/1.1/">
  <defs
     id="defs2">
    <inkscape:path-effect
       effect="join_type"
       id="path-effect30164"
       is_visible="true"
       lpeversion="1"
       linecap_type="round"
       line_width="2"
       linejoin_type="extrp_arc"
       miter_limit="100"
       attempt_force_join="true" />
    <inkscape:path-effect
       effect="fillet_chamfer"
       id="path-effect30168"
       is_visible="true"
       lpeversion="1"
       satellites_param="F,0,0,1,0,0,0,1 @ F,0,0,1,0,0,0,1 | F,0,0,1,0,0,0,1 @ F,0,0,1,0,0,0,1"
       unit="px"
       method="auto"
       mode="F"
       radius="0"
       chamfer_steps="1"
       flexible="false"
       use_knot_distance="true"
       apply_no_radius="true"
       apply_with_radius="true"
       only_selected="false"
       hide_knots="false" />
    <inkscape:path-effect
       effect="join_type"
       id="path-effect30172"
       is_visible="true"
       lpeversion="1"
       linecap_type="round"
       line_width="2"
       linejoin_type="extrp_arc"
       miter_limit="100"
       attempt_force_join="true" />
    <inkscape:path-effect
       effect="join_type"
       id="path-effect30176"
       is_visible="true"
       lpeversion="1"
       linecap_type="round"
       line_width="2"
       linejoin_type="round"
       miter_limit="100"
       attempt_force_join="true" />
    <inkscape:path-effect
       effect="join_type"
       id="path-effect30180"
       is_visible="true"
       lpeversion="1"
       linecap_type="round"
       line_width="2"
       linejoin_type="extrp_arc"
       miter_limit="100"
       attempt_force_join="true" />
  </defs>
  <sodipodi:namedview
     units="px"
     borderlayer="true"
     inkscape:showpageshadow="false"
     showgrid="false"
     inkscape:document-rotation="0"
     inkscape:current-layer="layer1"
     inkscape:document-units="px"
     inkscape:cy="560"
     inkscape:cx="400"
     inkscape:zoom="0.35"
     inkscape:pageshadow="2"
     inkscape:pageopacity="0"
     borderopacity="1"
     bordercolor="#383838"
     pagecolor="#ffffff"
     id="base"
     inkscape:pagecheckerboard="false"
     width="800px" />
  <metadata
     id="metadata5">
    <rdf:RDF>
      <cc:Work
         rdf:about="">
        <dc:format>image/svg+xml</dc:format>
        <dc:type
           rdf:resource="http://purl.org/dc/dcmitype/StillImage" />
        <cc:license
           rdf:resource="http://creativecommons.org/licenses/by-sa/4.0/" />
      </cc:Work>
      <cc:License
         rdf:about="http://creativecommons.org/licenses/by-sa/4.0/">
        <cc:permits
           rdf:resource="http://creativecommons.org/ns#Reproduction" />
        <cc:permits
           rdf:resource="http://creativecommons.org/ns#Distribution" />
        <cc:requires
           rdf:resource="http://creativecommons.org/ns#Notice" />
        <cc:requires
           rdf:resource="http://creativecommons.org/ns#Attribution" />
        <cc:permits
           rdf:resource="http://creativecommons.org/ns#DerivativeWorks" />
        <cc:requires
           rdf:resource="http://creativecommons.org/ns#ShareAlike" />
      </cc:License>
    </rdf:RDF>
  </metadata>
  <g
     id="layer1"
     inkscape:groupmode="layer"
     inkscape:label="Layer 1">
    <g
       aria-label="fwupd
friendly firmware"
       id="text30140"
       style="font-weight:bold;font-size:45.2735px;line-height:1;font-family:'Red Hat Display';-inkscape-font-specification:'Red Hat Display, Bold';letter-spacing:0px;word-spacing:0px;baseline-shift:baseline;vector-effect:none;fill:#2e3436;stroke-width:0.548513;stop-color:#000000">
      <path
         d="m 138.06244,74.346498 v 5.206452 h 5.25172 v 18.38104 h 6.20247 V 79.55295 h 6.42884 v -5.206452 h -6.42884 v -2.127855 c 0,-2.082581 1.17711,-3.078598 3.53133,-3.078598 0.99602,0 1.76567,0.135821 2.89751,0.362188 v -5.206452 c -0.99602,-0.271641 -2.3995,-0.407461 -3.66716,-0.407461 -5.795,0 -8.96415,2.897503 -8.96415,8.194503 v 2.263675 z"
         style="baseline-shift:baseline;vector-effect:none;stop-color:#000000;stop-opacity:1"
         id="path31" />
      <path
         d="m 169.66333,97.93399 4.57262,-15.076075 4.57262,15.076075 h 5.93083 l 6.51939,-23.587492 h -5.79501 l -3.89352,15.257169 -4.66317,-15.257169 h -5.20646 l -4.70844,15.257169 -3.89352,-15.257169 h -5.88556 l 6.47412,23.587492 z"
         style="baseline-shift:baseline;vector-effect:none;stop-color:#000000;stop-opacity:1"
         id="path33" />
      <path
         d="m 200.17763,74.346498 h -6.20246 v 14.62334 c 0,5.523367 3.84824,9.416887 9.32634,9.416887 2.58059,0 4.84426,-0.814923 6.6552,-2.354221 v 1.901486 h 6.20247 V 74.346498 h -6.20247 v 16.343733 c -1.08656,1.539299 -2.76168,2.354222 -4.88954,2.354222 -2.94277,0 -4.88954,-1.946761 -4.88954,-4.980085 z"
         style="baseline-shift:baseline;vector-effect:none;stop-color:#000000;stop-opacity:1"
         id="path35" />
      <path
         d="m 221.00338,107.39615 h 6.20247 V 96.394692 c 1.85621,1.222384 4.11989,1.856213 6.42883,1.856213 6.8363,0 12.17858,-5.296999 12.17858,-12.088024 0,-6.791025 -5.297,-12.133298 -11.99748,-12.133298 -2.49004,0 -4.79899,0.76965 -6.70048,2.263675 v -1.94676 h -6.11192 z m 11.81638,-28.069567 c 3.84825,0 6.88157,2.942777 6.88157,6.836298 0,3.893521 -2.98805,6.836298 -6.88157,6.836298 -2.2184,0 -4.25571,-0.814923 -5.61391,-2.173128 v -9.281067 c 1.40348,-1.448752 3.35024,-2.218401 5.61391,-2.218401 z"
         style="baseline-shift:baseline;vector-effect:none;stop-color:#000000;stop-opacity:1"
         id="path37" />
      <path
         d="m 267.4087,97.93399 h 6.11192 V 64.884337 l -6.20247,1.358205 v 9.643255 c -1.85621,-1.222385 -4.11989,-1.856214 -6.42883,-1.856214 -6.8363,0 -12.17858,5.297 -12.17858,12.088024 0,6.791025 5.297,12.133298 11.99748,12.133298 2.49004,0 4.79899,-0.76965 6.70048,-2.263675 z M 254.82267,86.117607 c 0,-3.893521 2.94277,-6.836298 6.88157,-6.836298 2.2184,0 4.25571,0.814923 5.61391,2.218402 v 9.19052 c -1.40348,1.448752 -3.30496,2.263675 -5.61391,2.263675 -3.89352,0 -6.88157,-2.988051 -6.88157,-6.836299 z"
         style="baseline-shift:baseline;vector-effect:none;stop-color:#000000;stop-opacity:1"
         id="path39" />
      <path
         d="m 138.06244,119.62 v 5.20645 h 5.25172 v 18.38104 h 6.20247 v -18.38104 h 6.42884 V 119.62 h -6.42884 v -2.12786 c 0,-2.08258 1.17711,-3.0786 3.53133,-3.0786 0.99602,0 1.76567,0.13582 2.89751,0.36219 v -5.20645 c -0.99602,-0.27164 -2.3995,-0.40746 -3.66716,-0.40746 -5.795,0 -8.96415,2.8975 -8.96415,8.1945 V 119.62 Z"
         style="baseline-shift:baseline;vector-effect:none;stop-color:#000000;stop-opacity:1"
         id="path41" />
      <path
         d="m 159.20515,143.20749 h 6.20247 v -15.25717 c 1.17711,-2.30895 3.30496,-3.53133 5.70446,-3.53133 1.13184,0 2.26367,0.22636 3.16914,0.63383 V 119.62 c -0.63383,-0.36219 -1.3582,-0.49801 -2.58059,-0.54329 -2.62586,0 -4.79899,1.08657 -6.29301,3.12388 V 119.62 h -6.20247 z"
         style="baseline-shift:baseline;vector-effect:none;stop-color:#000000;stop-opacity:1"
         id="path43" />
      <path
         d="m 180.71004,116.81304 c 1.94676,0 3.53134,-1.58457 3.53134,-3.53133 0,-1.94676 -1.58458,-3.53134 -3.53134,-3.53134 -1.94676,0 -3.53133,1.58458 -3.53133,3.53134 0,1.94676 1.58457,3.53133 3.53133,3.53133 z m 3.12387,2.80696 h -6.20247 v 23.58749 h 6.20247 z"
         style="baseline-shift:baseline;vector-effect:none;stop-color:#000000;stop-opacity:1"
         id="path45" />
      <path
         d="m 209.82088,140.26471 -4.07462,-3.71243 c -1.26766,1.22239 -3.12387,1.90149 -5.20645,1.90149 -3.25969,0 -5.84028,-1.99203 -6.70048,-4.93481 h 17.56612 v -1.62985 c 0,-7.24376 -4.98009,-12.67658 -11.68056,-12.67658 -6.8363,0 -12.1333,5.38755 -12.1333,12.22385 0,6.88157 5.52336,12.22384 12.67658,12.22384 3.7577,0 6.6552,-1.04129 9.55271,-3.39551 z m -10.23181,-15.93627 c 2.71641,0 4.98008,1.94676 5.74973,4.75372 h -11.54474 c 0.76965,-2.89751 2.94277,-4.75372 5.79501,-4.75372 z"
         style="baseline-shift:baseline;vector-effect:none;stop-color:#000000;stop-opacity:1"
         id="path47" />
      <path
         d="m 215.20836,143.20749 h 6.20247 v -16.34373 c 1.08656,-1.5393 2.76168,-2.35423 4.84426,-2.35423 2.98805,0 4.88954,1.94676 4.88954,4.93482 v 13.76314 h 6.20247 v -14.66861 c 0,-5.52337 -3.84825,-9.37162 -9.32634,-9.37162 -2.58059,0 -4.79899,0.81492 -6.60993,2.30895 V 119.62 h -6.20247 z"
         style="baseline-shift:baseline;vector-effect:none;stop-color:#000000;stop-opacity:1"
         id="path49" />
      <path
         d="m 259.66686,143.20749 h 6.11192 v -33.04965 l -6.20246,1.3582 v 9.64326 c -1.85622,-1.22239 -4.11989,-1.85622 -6.42884,-1.85622 -6.8363,0 -12.17857,5.297 -12.17857,12.08803 0,6.79102 5.297,12.13329 11.99747,12.13329 2.49005,0 4.799,-0.76965 6.70048,-2.26367 z m -12.58603,-11.81638 c 0,-3.89352 2.94278,-6.8363 6.88157,-6.8363 2.2184,0 4.25571,0.81492 5.61392,2.2184 v 9.19052 c -1.40348,1.44875 -3.30497,2.26367 -5.61392,2.26367 -3.89352,0 -6.88157,-2.98805 -6.88157,-6.83629 z"
         style="baseline-shift:baseline;vector-effect:none;stop-color:#000000;stop-opacity:1"
         id="path51" />
      <path
         d="m 276.87079,110.15784 -6.20246,1.3582 v 31.69145 h 6.20246 z"
         style="baseline-shift:baseline;vector-effect:none;stop-color:#000000;stop-opacity:1"
         id="path53" />
      <path
         d="m 288.0986,144.29405 c -0.90547,2.12786 -2.44477,3.21442 -4.66317,3.21442 -0.95075,0 -1.5393,-0.0453 -2.17313,-0.18109 v 5.34227 c 0.63383,0.18109 1.67512,0.27164 2.76168,0.27164 5.16118,0 8.01341,-2.17313 10.45818,-7.87759 L 305.3478,119.62 h -6.70048 l -6.70048,16.07209 -5.84028,-16.07209 h -6.8363 l 9.19052,23.81386 z"
         style="baseline-shift:baseline;vector-effect:none;stop-color:#000000;stop-opacity:1"
         id="path55" />
      <path
         d="m 315.26254,119.62 v 5.20645 h 5.25173 v 18.38104 h 6.20246 v -18.38104 h 6.42884 V 119.62 h -6.42884 v -2.12786 c 0,-2.08258 1.17712,-3.0786 3.53134,-3.0786 0.99601,0 1.76566,0.13582 2.8975,0.36219 v -5.20645 c -0.99602,-0.27164 -2.39949,-0.40746 -3.66715,-0.40746 -5.79501,0 -8.96415,2.8975 -8.96415,8.1945 V 119.62 Z"
         style="baseline-shift:baseline;vector-effect:none;stop-color:#000000;stop-opacity:1"
         id="path57" />
      <path
         d="m 339.48386,116.81304 c 1.94676,0 3.53133,-1.58457 3.53133,-3.53133 0,-1.94676 -1.58457,-3.53134 -3.53133,-3.53134 -1.94676,0 -3.53133,1.58458 -3.53133,3.53134 0,1.94676 1.58457,3.53133 3.53133,3.53133 z m 3.12387,2.80696 h -6.20247 v 23.58749 h 6.20247 z"
         style="baseline-shift:baseline;vector-effect:none;stop-color:#000000;stop-opacity:1"
         id="path59" />
      <path
         d="m 347.45197,143.20749 h 6.20247 v -15.25717 c 1.17711,-2.30895 3.30497,-3.53133 5.70446,-3.53133 1.13184,0 2.26368,0.22636 3.16915,0.63383 V 119.62 c -0.63383,-0.36219 -1.35821,-0.49801 -2.58059,-0.54329 -2.62587,0 -4.79899,1.08657 -6.29302,3.12388 V 119.62 h -6.20247 z"
         style="baseline-shift:baseline;vector-effect:none;stop-color:#000000;stop-opacity:1"
         id="path61" />
      <path
         d="m 365.87826,143.20749 h 6.20247 v -16.5701 c 1.08656,-1.40348 2.53531,-2.12786 4.39152,-2.12786 2.71641,0 4.43681,1.94676 4.43681,4.93482 v 13.76314 h 6.20247 v -14.66861 c 0,-0.58856 -0.0453,-1.13184 -0.13582,-1.67512 1.08656,-1.5393 2.62586,-2.35423 4.52735,-2.35423 2.71641,0 4.4368,1.94676 4.4368,4.93482 v 13.76314 h 6.20247 v -14.66861 c 0,-5.52337 -3.71243,-9.37162 -9.00943,-9.37162 -3.21442,0 -5.88555,1.22239 -7.78704,3.53133 -1.58457,-2.2184 -4.07461,-3.53133 -7.10794,-3.53133 -2.39949,0 -4.48208,0.76965 -6.15719,2.2184 V 119.62 h -6.20247 z"
         style="baseline-shift:baseline;vector-effect:none;stop-color:#000000;stop-opacity:1"
         id="path63" />
      <path
         d="m 416.90141,143.20749 4.57262,-15.07608 4.57262,15.07608 h 5.93083 L 438.49686,119.62 h -5.795 l -3.89352,15.25717 -4.66317,-15.25717 h -5.20646 l -4.70844,15.25717 -3.89352,-15.25717 h -5.88556 l 6.47411,23.58749 z"
         style="baseline-shift:baseline;vector-effect:none;stop-color:#000000;stop-opacity:1"
         id="path65" />
      <path
         d="m 448.50222,143.61495 c 2.71641,0 4.84427,-0.63383 6.8363,-2.03731 v 1.62985 h 6.11192 v -15.30244 c 0,-5.56864 -3.66715,-8.73779 -10.05071,-8.73779 -3.39552,0 -6.79103,0.81492 -10.50346,2.53532 l 2.26368,4.57262 c 2.98805,-1.31293 5.20645,-1.94676 7.19849,-1.94676 3.30496,0 4.98008,1.40348 4.98008,4.11989 v 1.67512 c -1.85621,-0.58856 -3.80297,-0.90547 -5.74973,-0.90547 -6.06665,0 -9.68853,2.67113 -9.68853,7.15321 0,4.30098 3.53133,7.24376 8.60196,7.24376 z m -2.67113,-7.37958 c 0,-1.81094 1.67512,-2.94278 4.52735,-2.94278 1.81094,0 3.44078,0.27164 4.98008,0.8602 v 3.53133 c -1.44875,0.99602 -3.16914,1.49403 -5.20645,1.49403 -2.62586,0 -4.30098,-1.13184 -4.30098,-2.94278 z"
         style="baseline-shift:baseline;vector-effect:none;stop-color:#000000;stop-opacity:1"
         id="path67" />
      <path
         d="m 466.1588,143.20749 h 6.20247 v -15.25717 c 1.17711,-2.30895 3.30497,-3.53133 5.70446,-3.53133 1.13184,0 2.26368,0.22636 3.16915,0.63383 V 119.62 c -0.63383,-0.36219 -1.35821,-0.49801 -2.58059,-0.54329 -2.62586,0 -4.79899,1.08657 -6.29302,3.12388 V 119.62 h -6.20247 z"
         style="baseline-shift:baseline;vector-effect:none;stop-color:#000000;stop-opacity:1"
         id="path69" />
      <path
         d="m 504.59593,140.26471 -4.07461,-3.71243 c -1.26766,1.22239 -3.12388,1.90149 -5.20646,1.90149 -3.25969,0 -5.84028,-1.99203 -6.70047,-4.93481 h 17.56611 v -1.62985 c 0,-7.24376 -4.98008,-12.67658 -11.68056,-12.67658 -6.8363,0 -12.1333,5.38755 -12.1333,12.22385 0,6.88157 5.52337,12.22384 12.67658,12.22384 3.7577,0 6.65521,-1.04129 9.55271,-3.39551 z m -10.23181,-15.93627 c 2.71641,0 4.98009,1.94676 5.74973,4.75372 h -11.54474 c 0.76965,-2.89751 2.94278,-4.75372 5.79501,-4.75372 z"
         style="baseline-shift:baseline;vector-effect:none;stop-color:#000000;stop-opacity:1"
         id="path71" />
    </g>
    <g
       id="g30160"
       transform="translate(-15.973991,11.246368)"
       style="opacity:0.483087">
      <g
         id="g30156"
         transform="matrix(5,0,0,5,-1100.4297,-282.76953)">
        <rect
           y="69"
           x="229"
           height="16"
           width="16"
           id="rect30142"
           style="fill:none;stroke-width:3" />
        <path
           d="m 234.0209,84 v -3 a 1,1 0 1 0 -2,0 v 3 a 1,1 0 1 0 2,0 z M 238,84 v -3 a 1,1 0 1 0 -2,0 v 3 a 1,1 0 1 0 2,0 z m 4,0 v -3 a 1,1 0 1 0 -2,0 v 3 a 1,1 0 1 0 2,0 z"
           style="fill:#2e3436;fill-rule:nonzero;stroke:none;stroke-width:2;stroke-linecap:round;stroke-linejoin:miter;stroke-miterlimit:4;stroke-dasharray:none;stroke-opacity:1"
           id="path30144"
           sodipodi:nodetypes="cccccc"
           inkscape:path-effect="#path-effect30164"
           inkscape:original-d="m 241,84 v -3 m -4,3 v -3 m -3.9791,3 v -3"
           inkscape:linked-fill="path26804" />
        <path
           id="path30146"
           style="fill:#2e3436;fill-rule:nonzero;stroke:none;stroke-width:2;stroke-linecap:round;stroke-linejoin:miter;stroke-miterlimit:4;stroke-dasharray:none;stroke-opacity:1"
           inkscape:path-effect="#path-effect30168;#path-effect30172"
           inkscape:original-d="M 241.01422,73.01422 V 71 m -7.9791,2.01422 V 71"
           d="M 234.03512,73.01422 V 71 a 1,1 0 1 0 -2,0 v 2.01422 a 1,1 0 1 0 2,0 z m 7.9791,0 V 71 a 1,1 0 1 0 -2,0 v 2.01422 a 1,1 0 1 0 2,0 z"
           sodipodi:nodetypes="cccc" />
        <path
           id="path30148"
           style="fill:none;stroke:#2e3436;stroke-width:2;stroke-linecap:round;stroke-linejoin:round;stop-color:#000000"
           d="m 240,73 h 0.69263 C 241.97091,73 243,74.02909 243,75.30737 v 4.38526 C 243,80.97091 241.97091,82 240.69263,82 h -7.38526 C 232.02909,82 231,80.97091 231,79.69263 V 75.30737 C 231,74.02909 232.02909,73 233.30737,73 h 0.72775"
           sodipodi:nodetypes="cssssssc" />
        <path
           style="fill:#2e3436;fill-opacity:1;stroke:none;stroke-width:1;stroke-linecap:butt;stroke-linejoin:miter;stroke-opacity:1"
           d="m 232,79 c 0,0.54582 0.46823,1 1.0209,1 H 241 c 0.59367,0 1,-0.51379 1,-1 h 1 v 0.93481 l -2,2.04508 -8,0.0201 -2,-2.30498 V 79 Z"
           id="path30150"
           sodipodi:nodetypes="ccccccccccc" />
        <path
           style="font-variation-settings:normal;vector-effect:none;fill:#2e3436;fill-opacity:1;fill-rule:nonzero;stroke:none;stroke-width:2;stroke-linecap:round;stroke-linejoin:round;stroke-miterlimit:4;stroke-dasharray:none;stroke-dashoffset:0;stroke-opacity:1;-inkscape-stroke:none;stop-color:#000000"
           d="M 236,64.065039 V 78 l 1.70711,-0.707107 -2,-2 a 1,1 0 1 0 -1.41422,1.414214 l 2,2 A 1,1 0 0 0 238,78 V 64.065039 a 1,1 0 1 0 -2,0 z"
           id="path30152"
           inkscape:path-effect="#path-effect30176"
           inkscape:original-d="M 237,64.065039 V 78 l -2,-2"
           sodipodi:nodetypes="ccc" />
        <path
           style="font-variation-settings:normal;vector-effect:none;fill:#2e3436;fill-opacity:1;fill-rule:nonzero;stroke:none;stroke-width:2;stroke-linecap:round;stroke-linejoin:round;stroke-miterlimit:4;stroke-dasharray:none;stroke-dashoffset:0;stroke-opacity:1;-inkscape-stroke:none;stop-color:#000000"
           d="m 237.70711,78.707107 2,-2 a 1,1 0 1 0 -1.41422,-1.414214 l -2,2 a 1,1 0 1 0 1.41422,1.414214 z"
           id="path30154"
           inkscape:path-effect="#path-effect30180"
           inkscape:original-d="m 237,78 2,-2" />
      </g>
      <path
         id="path30158"
         d="m 70.812502,18.156243 c -0.0969,-1.4e-4 -0.19366,0.008 -0.28907,0.02539 l -2.5625,0.46289 c -0.1187,0.0216 -0.23465,0.0563 -0.3457,0.10352 -4.722649,1.99357 -7.36785,6.02436 -7.57031,11.18554 h -0.89844 l -2.20508,-0.08203 c -0.26589,-0.01 -0.53008,0.0461 -0.76953,0.16211 -0.91051,0.43919 -1.68047,0.95847 -2.27148,1.6543 -0.59101,0.695829 -0.9668,1.613679 -0.9668,2.541009 3e-5,0.0798 0.006,0.1594 0.0176,0.23829 0.17354,1.1714 0.52196,2.21302 1.24219,3.04101 0.72022,0.82799 1.84801,1.29688 2.93359,1.29688 h 2.94922 v 17.906251 l -0.10547,1.32812 c -0.0178,0.23338 0.0148,0.46785 0.0957,0.6875 0.36968,1.00819 0.90487,1.89144 1.6875,2.53711 0.78264,0.64568 1.80405,0.98633 2.81641,0.98633 0.12087,3.2e-4 0.2414,-0.01276 0.35938,-0.03906 1.11499,-0.25142 2.10037,-0.66979 2.86328,-1.41016 0.7629,-0.74037 1.18945,-1.82519 1.18945,-2.88086 7e-5,-0.0391 -9.1e-4,-0.0782 -0.004,-0.11719 l -0.0781,-1.08593 V 38.785152 h 8.22656 2.94922 v 38.007814 l -0.10547,1.32812 c -0.01779,0.233379 0.01485,0.467853 0.0957,0.6875 0.36968,1.00819 0.90487,1.89144 1.6875,2.53711 0.78264,0.64568 1.80405,0.98633 2.81641,0.98633 0.120871,3.35e-4 0.241404,-0.01277 0.35938,-0.03906 1.11498,-0.25142 2.10037,-0.66979 2.86328,-1.41016 0.7629,-0.74037 1.18945,-1.82519 1.18945,-2.88086 7.2e-5,-0.0391 -0.0013,-0.07819 -0.004,-0.11719 l -0.0781,-1.08593 V 38.785152 h 1.63086 9.544918 v 17.906251 l -0.10547,1.32812 c -0.0178,0.23338 0.0148,0.46785 0.0957,0.6875 0.36968,1.00819 0.90487,1.89144 1.6875,2.53711 0.78264,0.64568 1.80405,0.98633 2.81641,0.98633 0.12087,3.2e-4 0.2414,-0.01276 0.35938,-0.03906 1.11498,-0.25142 2.10037,-0.66979 2.86328,-1.41016 0.7629,-0.74037 1.18945,-1.82519 1.18945,-2.88086 7e-5,-0.0391 -9.1e-4,-0.0782 -0.004,-0.11719 l -0.0781,-1.08593 V 38.785152 h 3.63086 c 0.12958,3.7e-4 0.25875,-0.01473 0.38476,-0.04493 1.05245,-0.2548 1.98792,-0.67151 2.71094,-1.39453 0.72302,-0.72301 1.125,-1.76831 1.125,-2.78125 v -0.38281 c -2.2e-4,-0.12428 -0.0147,-0.24813 -0.043,-0.36914 -0.25204,-1.0849 -0.66094,-2.044479 -1.38476,-2.791019 -0.72383,-0.74655 -1.78818,-1.16992 -2.82032,-1.16992 -0.0274,-2e-5 -0.0547,6.1e-4 -0.082,0.002 l -1.5957,0.08007 h -1.88281 l 0.0254,-0.64648 c 0.26803,-0.85351 0.60795,-1.41122 0.96875,-1.71289 0.37972,-0.3175 0.81188,-0.48633 1.55664,-0.48633 h 1.63672 c 0.11956,3e-5 0.23877,-0.01306 0.35547,-0.03906 1.12446,-0.25109 2.11813,-0.67071 2.88671,-1.41602 0.76859,-0.7453 1.19727,-1.83681 1.19727,-2.90039 -3e-5,-0.0797 -0.006,-0.15939 -0.0176,-0.23828 -0.17362,-1.17193 -0.52137,-2.2133 -1.24219,-3.04101 -0.72081,-0.82772 -1.84996,-1.29688 -2.93554,-1.29688 h -2.5625 c -0.0969,-1.4e-4 -0.19366,0.008 -0.28907,0.02539 l -2.5625,0.46289 c -0.11871,0.0216 -0.23465,0.0563 -0.3457,0.10352 -4.72265,1.99357 -7.36785,6.02436 -7.57031,11.18554 h -0.89844 l -6.156248,-0.04687 c -0.16195,-0.02042 -0.32453,-0.03516 -0.48633,-0.03516 -0.02735,-2.1e-5 -0.05469,6.46e-4 -0.082,0.002 l -0.52344,0.02539 -0.98828,-0.0059 c -0.13514,-0.01424 -0.27137,-0.02149 -0.40625,-0.02149 -0.0274,-2e-5 -0.0547,6.1e-4 -0.082,0.002 l -0.3164,0.01562 -1.16016,-0.0059 0.0234,-0.57617 c 0.26803,-0.85351 0.60795,-1.41122 0.96875,-1.71289 0.37972,-0.3175 0.81188,-0.48633 1.55664,-0.48633 h 1.63672 c 0.119564,4.7e-5 0.23877,-0.01305 0.355471,-0.03906 1.12446,-0.25109 2.11813,-0.67071 2.886709,-1.41602 0.768591,-0.7453 1.19727,-1.83681 1.19727,-2.90039 -3.4e-5,-0.07975 -0.0059,-0.15939 -0.0176,-0.23828 -0.17362,-1.17193 -0.52137,-2.2133 -1.24219,-3.04101 -0.720809,-0.82772 -1.84996,-1.29688 -2.93554,-1.29688 h -2.5625 c -0.09692,-1.41e-4 -0.193658,0.0084 -0.289069,0.02539 l -2.5625,0.46289 c -0.118708,0.02161 -0.234651,0.05633 -0.345701,0.10352 -4.72265,1.99357 -7.367849,6.02436 -7.57031,11.18554 h -0.89844 l -2.20508,-0.08203 c -0.132415,0.01141 -0.262939,0.03895 -0.38867,0.08203 h -7.60937 l 0.0254,-0.64648 c 0.26803,-0.85351 0.60795,-1.41122 0.96875,-1.71289 0.37972,-0.3175 0.81188,-0.48633 1.55664,-0.48633 h 1.63672 c 0.11956,3e-5 0.23877,-0.01306 0.35547,-0.03906 1.12446,-0.25109 2.11813,-0.67071 2.88671,-1.41602 0.76859,-0.7453 1.19727,-1.83681 1.19727,-2.90039 -3e-5,-0.0797 -0.006,-0.15939 -0.0176,-0.23828 -0.17362,-1.17193 -0.52137,-2.2133 -1.24219,-3.04101 -0.72081,-0.82772 -1.84996,-1.29688 -2.93554,-1.29688 z"
         style="fill:#2e3436;fill-opacity:1"
         sodipodi:nodetypes="ccccccccsccssccccsccscccccccccsccscccccccccsccsccccccssccssccccssccsccssccccccccccccccccssccsccssccccccccccssccsccscc" />
    </g>
    <text
       xml:space="preserve"
       style="font-style:normal;font-variant:normal;font-weight:bold;font-stretch:normal;font-size:45.2735px;line-height:1;font-family:'Red Hat Display';-inkscape-font-specification:'Red Hat Display, Bold';font-variant-ligatures:normal;font-variant-position:normal;font-variant-caps:normal;font-variant-numeric:normal;font-variant-alternates:normal;font-variant-east-asian:normal;text-indent:0;text-align:start;text-decoration-line:none;text-decoration-style:solid;text-decoration-color:#000000;letter-spacing:0px;word-spacing:0px;text-transform:none;writing-mode:lr-tb;direction:ltr;text-orientation:mixed;dominant-baseline:auto;baseline-shift:baseline;text-anchor:start;white-space:normal;vector-effect:none;fill:#2e3436;fill-opacity:1;stroke-width:0.548513;stroke-linecap:butt;stroke-linejoin:miter;stroke-miterlimit:4;stroke-dasharray:none;stroke-dashoffset:0;stroke-opacity:1;-inkscape-stroke:none;stop-color:#000000"
       x="657.2475"
       y="97.93399"
       id="text29"><tspan
         sodipodi:role="line"
         id="tspan25"
         x="657.2475"
         y="97.93399"
         style="font-style:normal;font-variant:normal;font-weight:bold;font-stretch:normal;font-size:45.2735px;font-family:'Red Hat Display';-inkscape-font-specification:'Red Hat Display, Bold';font-variant-ligatures:normal;font-variant-position:normal;font-variant-caps:normal;font-variant-numeric:normal;font-variant-alternates:normal;font-variant-east-asian:normal;text-indent:0;text-align:start;text-decoration-line:none;text-decoration-style:solid;text-decoration-color:#000000;letter-spacing:0px;word-spacing:0px;text-transform:none;writing-mode:lr-tb;direction:ltr;text-orientation:mixed;dominant-baseline:auto;baseline-shift:baseline;text-anchor:start;white-space:normal;vector-effect:none;fill:#2e3436;fill-opacity:1;stroke-width:0.548513;stroke-linecap:butt;stroke-linejoin:miter;stroke-miterlimit:4;stroke-dasharray:none;stroke-dashoffset:0;stroke-opacity:1;-inkscape-stroke:none;stop-color:#000000;stop-opacity:1">fwupd </tspan><tspan
         sodipodi:role="line"
         x="657.2475"
         y="143.20749"
         style="font-style:normal;font-variant:normal;font-weight:bold;font-stretch:normal;font-size:45.2735px;font-family:'Red Hat Display';-inkscape-font-specification:'Red Hat Display, Bold';font-variant-ligatures:normal;font-variant-position:normal;font-variant-caps:normal;font-variant-numeric:normal;font-variant-alternates:normal;font-variant-east-asian:normal;text-indent:0;text-align:start;text-decoration-line:none;text-decoration-style:solid;text-decoration-color:#000000;letter-spacing:0px;word-spacing:0px;text-transform:none;writing-mode:lr-tb;direction:ltr;text-orientation:mixed;dominant-baseline:auto;baseline-shift:baseline;text-anchor:start;white-space:normal;vector-effect:none;fill:#2e3436;fill-opacity:1;stroke-width:0.548513;stroke-linecap:butt;stroke-linejoin:miter;stroke-miterlimit:4;stroke-dasharray:none;stroke-dashoffset:0;stroke-opacity:1;-inkscape-stroke:none;stop-color:#000000;stop-opacity:1"
         id="tspan27">friendly firmware</tspan></text>
  </g>
</svg>
